<svg width="25" height="25" viewBox="0 0 25 25" fill="none" xmlns="http://www.w3.org/2000/svg">
<circle cx="12.5" cy="12.6079" r="11.5" stroke="#09B58C"/>
<path d="M16.5005 13.1075C16.7766 13.1075 17.0005 12.8836 17.0005 12.6075C17.0005 12.3314 16.7766 12.1075 16.5005 12.1075L13.0005 12.1075L13.0005 8.6075C13.0005 8.33136 12.7766 8.1075 12.5005 8.1075C12.2243 8.1075 12.0005 8.33136 12.0005 8.6075L12.0005 12.1075L8.50049 12.1075C8.22435 12.1075 8.00049 12.3314 8.00049 12.6075C8.00049 12.8836 8.22435 13.1075 8.50049 13.1075L12.0005 13.1075L12.0005 16.6075C12.0005 16.8836 12.2243 17.1075 12.5005 17.1075C12.7766 17.1075 13.0005 16.8836 13.0005 16.6075L13.0005 13.1075L16.5005 13.1075Z" fill="#09B58C"/>
</svg>
