<svg xmlns="http://www.w3.org/2000/svg" viewBox="0 0 343.24 357.09" class="prevent-clear">
    <path d="M210.46,0H132.78C59.75,0,0,59.75,0,132.78v77.68A132.59,132.59,0,0,0,45.95,310.71c-7.26,16-19,35.3-36.61,46.38,32.85-1.65,55.34-12.34,71.94-24.3a131.56,131.56,0,0,0,51.5,10.45h77.68c73,0,132.78-59.75,132.78-132.78V132.78C343.24,59.75,283.49,0,210.46,0Z" fill="#ea283f"/>
    <path d="M114.39,149a188.27,188.27,0,0,0,2.54,29.79L93.26,116.64H69.72v80H86.57V167.32q0-9.58-.63-16.57t-1.79-16.11l23.09,62h24.13v-80h-17Zm56.68-15.59a26.42,26.42,0,0,0-25.28,16.11,40.51,40.51,0,0,0-3.35,16.8q0,14.78,8,23.55t22.86,8.77a37.44,37.44,0,0,0,23.9-8.54l-7.5-10.16a36.85,36.85,0,0,1-7.5,4.1,19.82,19.82,0,0,1-7.16,1.33q-6.12,0-9.58-3.12T161,171.36h38a54,54,0,0,0,.35-6.58q0-14.78-7.5-23.09T171.07,133.38Zm10.39,27H161q.58-8,3.17-11.43a8.63,8.63,0,0,1,7.33-3.46q9.7,0,9.93,14.08Zm89.46-25.05L263.53,183l-8.43-47.68H237.33L227.74,183l-6.35-47.68H202.92l13,61.3h21.59l8.08-45,8.2,45h21.82l12.7-61.3Z" fill="#fefdfd"/>
</svg>
