<svg width="36" height="45" viewBox="0 0 36 45" fill="none" xmlns="http://www.w3.org/2000/svg">
<path d="M17.9597 5.1781C8.04266 5.1781 4.82204 8.82913 4.68912 8.985L4.5293 9.17291V12.5047C4.5293 13.0016 4.81611 13.5479 4.99295 13.8383V16.0188C4.96209 16.3009 4.92727 17.0443 5.34305 17.5182C5.55629 17.7607 5.85536 17.8944 6.18688 17.8944H8.62697L8.7144 17.8703C8.72824 17.8881 8.73853 17.9083 8.75396 17.9253C8.97945 18.184 9.29949 18.3264 9.65316 18.3264H12.4287L12.4675 18.3157C12.5217 18.4277 12.5842 18.5377 12.6693 18.6374C12.8556 18.8561 13.1946 19.1164 13.7556 19.1164H17.4102L17.483 19.1002C17.6622 19.0599 17.9035 18.9495 18.1314 18.7548C18.3584 18.9495 18.5998 19.0599 18.779 19.1002L22.5063 19.1164C23.0665 19.1164 23.4056 18.8561 23.5919 18.6381C23.6769 18.5385 23.7394 18.4289 23.7936 18.3165L23.8316 18.3264H26.6088C26.9628 18.3264 27.2825 18.1836 27.5088 17.9253C27.525 17.9067 27.5365 17.8849 27.5511 17.8651C27.5551 17.8667 27.5594 17.8691 27.5626 17.8699L27.6516 17.8948H30.0925C30.4232 17.8948 30.7238 17.7611 30.9363 17.5178C31.3521 17.0439 31.3173 16.3013 31.2856 16.0185V13.9538C31.8213 13.4205 31.8418 12.7686 31.8418 12.6851V9.08509L31.6464 8.88887C31.4945 8.73696 27.8462 5.1781 17.9597 5.1781ZM17.9597 6.52355C25.9976 6.52355 29.6518 8.99766 30.4956 9.66979L30.4964 11.9283C30.1914 11.6988 29.8179 11.5723 29.3954 11.5723C28.622 11.5723 28.0084 11.9501 27.5551 12.3884C27.47 12.2353 27.3671 12.0834 27.2307 11.9465C26.8691 11.5825 26.3785 11.3911 25.8112 11.3911C24.823 11.3911 24.0666 11.9366 23.548 12.4999C23.4708 12.384 23.3842 12.2697 23.2766 12.1609C22.8232 11.7052 22.2073 11.4741 21.4453 11.4741C19.876 11.4741 18.758 12.4276 18.1306 13.1586C17.5031 12.4276 16.3844 11.4741 14.815 11.4741C14.0539 11.4741 13.4383 11.7052 12.9853 12.1609C12.8773 12.2689 12.7907 12.384 12.7132 12.4999C12.1945 11.9366 11.4373 11.3911 10.4483 11.3911C9.88182 11.3911 9.39127 11.5825 9.02969 11.9465C8.89598 12.0802 8.7947 12.2286 8.71044 12.3785C8.25826 11.9441 7.64864 11.5727 6.88235 11.5727C6.50297 11.5727 6.16077 11.67 5.87396 11.8555V9.70223C6.60938 9.03683 9.92336 6.52355 17.9597 6.52355ZM6.33958 16.549C6.32099 16.4394 6.31624 16.2748 6.33246 16.1462L6.338 13.6428C6.34116 13.4249 6.39892 12.9173 6.88275 12.9173C7.63993 12.9173 8.20486 13.8284 8.38248 14.1528V16.1739C8.38248 16.3694 8.34846 16.4868 8.31681 16.5486H6.33958V16.549ZM9.74494 16.9806C9.71171 16.8575 9.69945 16.6281 9.7216 16.4512V16.2534C9.72239 16.2257 9.72793 16.2024 9.72793 16.1739V13.8482L9.72714 13.8466L9.72793 13.6088C9.72714 13.5182 9.77105 13.1072 9.98349 12.894C10.0515 12.8259 10.1734 12.7357 10.4487 12.7357C11.3974 12.7357 12.0644 13.8003 12.2638 14.1627V16.4908C12.2638 16.7606 12.2044 16.9113 12.1526 16.9806H9.74494ZM17.212 17.7706H13.7552C13.7188 17.7706 13.6978 17.7658 13.6951 17.7658C13.6951 17.7658 13.6943 17.7658 13.6943 17.7666C13.6294 17.7041 13.5831 17.3825 13.6231 17.1135L13.6314 13.866C13.6314 13.862 13.6468 13.4015 13.9387 13.108C14.1302 12.9157 14.4249 12.8184 14.815 12.8184C16.2289 12.8184 17.1803 14.0748 17.4576 14.4934V17.1499C17.4576 17.5657 17.3053 17.7172 17.212 17.7706ZM22.5704 17.7635C22.5657 17.765 22.5451 17.7706 22.5056 17.7706H19.0416C18.9689 17.7267 18.8027 17.5775 18.8027 17.1499V14.4918C19.0784 14.0709 20.0196 12.8184 21.4453 12.8184C22.4984 12.8184 22.6238 13.5554 22.6282 13.8699V17.0063L22.6365 17.1099C22.6776 17.3825 22.6306 17.7041 22.5704 17.7635ZM26.5154 16.9806H24.1078C24.0559 16.9109 23.9966 16.7594 23.9966 16.4908V14.1635C24.1968 13.8019 24.8681 12.7357 25.8108 12.7357C26.4521 12.7357 26.5293 13.3501 26.5324 13.612V16.3618L26.5387 16.4524C26.5597 16.6075 26.551 16.8508 26.5154 16.9806ZM29.9386 16.549H27.959C27.9281 16.4872 27.8941 16.3697 27.8941 16.1743V14.154C28.0717 13.8296 28.6398 12.9177 29.3954 12.9177C29.8776 12.9177 29.937 13.4261 29.9394 13.6417V16.0592L29.9457 16.1466C29.9599 16.2598 29.958 16.433 29.9386 16.549Z" fill="url(#paint0_linear)"/>
<path d="M27.898 28.3973H26.28C25.8915 28.3973 25.5399 28.5619 25.2795 28.827C25.2756 28.827 25.2724 28.8262 25.2697 28.8262C25.1415 28.8262 25.0232 28.8471 24.9097 28.8673C24.8123 28.8843 24.7209 28.8998 24.6414 28.8998H22.8489C22.7694 28.8998 22.6773 28.8843 22.5807 28.8673C22.4664 28.8471 22.3481 28.8262 22.2199 28.8262C22.1127 28.8262 22.0059 28.844 21.9046 28.8788C21.8267 28.8626 21.7448 28.8519 21.6566 28.8519C21.5569 28.8519 21.4426 28.8626 21.3184 28.8768C21.2258 28.8875 21.1237 28.9002 21.0169 28.9002H18.9977C18.8909 28.9002 18.7893 28.8879 18.6963 28.8776C18.5725 28.863 18.4581 28.8523 18.3584 28.8523C18.2378 28.8523 18.129 28.8725 18.0269 28.9025C17.9249 28.8725 17.8169 28.8523 17.6962 28.8523C17.5965 28.8523 17.4822 28.863 17.358 28.8772C17.2654 28.8879 17.1633 28.9005 17.0557 28.9005H15.0373C14.9305 28.9005 14.8289 28.8883 14.7351 28.8772C14.6113 28.8634 14.497 28.8523 14.3973 28.8523C14.3031 28.8523 14.2165 28.8653 14.133 28.8839C14.027 28.8452 13.9142 28.8266 13.8023 28.8266C13.6741 28.8266 13.5558 28.8475 13.4415 28.8677C13.3442 28.8847 13.252 28.9002 13.1725 28.9002H11.3816C11.3021 28.9002 11.2107 28.8847 11.1133 28.8677C10.9998 28.8475 10.8815 28.8266 10.7533 28.8266C10.7502 28.8266 10.747 28.8274 10.7435 28.8274C10.4831 28.5623 10.1315 28.3977 9.74297 28.3977H8.12495C7.32544 28.3977 6.67546 29.0869 6.67546 29.9347V30.8054C6.43058 31.0681 5.99225 31.6631 5.99225 32.5646V36.3019C5.99225 36.4744 6.05871 36.6402 6.17779 36.7656C6.31071 36.9048 9.5242 40.1761 18.1084 40.1761C26.729 40.1761 29.6498 36.6196 29.7704 36.4681C29.8646 36.349 29.9156 36.2022 29.9156 36.0499V32.7917C29.9698 32.3546 29.8903 31.6089 29.3475 31.0835V29.9347C29.3475 29.0869 28.6968 28.3973 27.898 28.3973ZM26.28 29.7428H27.898C27.9337 29.7428 28.0025 29.8172 28.0025 29.9343V32.5421C28.0009 32.6643 27.97 33.2755 27.5475 33.2755C26.6638 33.2755 26.2927 32.7893 26.1752 32.5848V29.9347C26.1748 29.8152 26.2428 29.7428 26.28 29.7428ZM24.641 30.2448C24.7067 30.2448 24.7692 30.2416 24.8297 30.2365V32.7351V33.202C24.8282 33.2831 24.802 33.9947 24.2526 33.9947C23.222 33.9947 22.7936 33.467 22.6595 33.2467V30.2365C22.7196 30.242 22.7833 30.2448 22.8489 30.2448H24.641ZM18.9973 30.2448H21.0165C21.1194 30.2448 21.2191 30.2385 21.314 30.2294V33.4065V33.8246C21.2986 33.9366 21.1617 34.5502 20.0576 34.5502C18.9681 34.5502 18.7418 33.8021 18.6999 33.5873V30.2294C18.7952 30.2389 18.8949 30.2448 18.9973 30.2448ZM14.7402 30.2294C14.8352 30.2385 14.9349 30.2448 15.0377 30.2448H17.0561C17.1598 30.2448 17.2595 30.2385 17.3552 30.2294V33.6423V33.8159C17.3228 34.0153 17.1396 34.5498 16.0972 34.5498C15.0085 34.5498 14.7822 33.8017 14.7395 33.5869L14.7402 30.2294ZM13.1733 30.2448C13.2389 30.2448 13.3022 30.2416 13.3628 30.2365V33.2451C13.2235 33.4729 12.7947 33.9947 11.7704 33.9947C11.2475 33.9947 11.1964 33.3914 11.1933 33.2114V32.7355V30.2369C11.2534 30.2424 11.3171 30.2452 11.382 30.2452H13.1733V30.2448ZM8.02012 29.9343C8.02012 29.8168 8.08816 29.7428 8.12456 29.7428H9.74258C9.77897 29.7428 9.84781 29.8172 9.84781 29.9343V32.582C9.72557 32.7953 9.3533 33.2751 8.47546 33.2751C8.05295 33.2751 8.02209 32.6639 8.02051 32.5464V29.9343H8.02012ZM18.108 38.8306C11.2605 38.8306 8.09647 36.6271 7.33691 36.0012V34.1941C7.61343 34.4497 7.98609 34.6206 8.47506 34.6206C9.15194 34.6206 9.66899 34.4445 10.0622 34.208C10.3281 34.8121 10.8617 35.3398 11.7697 35.3398C12.6851 35.3398 13.3319 35.0577 13.7801 34.7254C14.1702 35.3303 14.889 35.8952 16.0964 35.8952C17.0628 35.8952 17.699 35.5732 18.1005 35.1634C18.5238 35.5768 19.152 35.8952 20.0568 35.8952C21.297 35.8952 21.9917 35.3635 22.3453 34.8002C22.788 35.0993 23.4056 35.3394 24.2514 35.3394C25.1478 35.3394 25.6815 34.8101 25.9513 34.2028C26.3453 34.4418 26.8647 34.6202 27.546 34.6202C27.97 34.6202 28.3063 34.4912 28.569 34.2895V35.7837C27.9127 36.4269 24.9888 38.8306 18.108 38.8306Z" fill="url(#paint1_linear)"/>
<defs>
<linearGradient id="paint0_linear" x1="18.1856" y1="5.1781" x2="18.1856" y2="19.1164" gradientUnits="userSpaceOnUse">
<stop stop-color="#09B58C"/>
<stop offset="1" stop-color="#009FE3"/>
</linearGradient>
<linearGradient id="paint1_linear" x1="17.9612" y1="28.3973" x2="17.9612" y2="40.1761" gradientUnits="userSpaceOnUse">
<stop stop-color="#09B58C"/>
<stop offset="1" stop-color="#009FE3"/>
</linearGradient>
</defs>
</svg>
