<svg width="45" height="57" viewBox="0 0 45 57" fill="none" xmlns="http://www.w3.org/2000/svg">
<path d="M28.6172 1.42505C27.7319 1.42413 26.8557 1.60645 26.0423 1.96085C24.9217 2.44497 23.7161 2.69453 22.4979 2.69453C21.2797 2.69453 20.0741 2.44497 18.9534 1.96085C17.9591 1.53006 16.8748 1.35588 15.7977 1.45394C14.7206 1.55199 13.6844 1.91921 12.7817 2.5227C11.879 3.12619 11.1382 3.94712 10.6254 4.91197C10.1127 5.87681 9.84413 6.95546 9.84375 8.0513C9.84689 10.8122 10.4762 13.5354 11.6831 16.0106L12.6851 19.442C12.7285 19.589 12.8176 19.7178 12.9391 19.8093C13.0606 19.9009 13.208 19.9502 13.3594 19.9501H15.4688V23.5126C15.4688 23.7015 15.5428 23.8827 15.6747 24.0164C15.8066 24.15 15.9854 24.2251 16.1719 24.2251H18.2812V25.883L16.2492 25.6543L16.0945 27.0708L18.2812 27.3173V30.158L16.2492 29.9293L16.0945 31.3458L18.2812 31.5923V34.433L16.2492 34.2043L16.0945 35.6208L18.2812 35.8673V38.708L16.2492 38.4793L16.0945 39.8958L18.3284 40.1473C18.3284 40.153 18.3284 40.1587 18.3284 40.1644L19.7346 43.7269C19.787 43.8597 19.8775 43.9734 19.9945 44.0533C20.1115 44.1333 20.2495 44.1757 20.3906 44.1751H24.6094C24.75 44.1751 24.8874 44.1324 25.0038 44.0525C25.1203 43.9727 25.2104 43.8592 25.2626 43.7269L26.3173 41.0472L28.748 41.3208L28.9027 39.9043L26.7187 39.6578V36.8171L28.7508 37.0458L28.9055 35.6293L26.7187 35.3828L26.7188 32.5421L28.7508 32.7708L28.9055 31.3543L26.7188 31.1078V28.2671L28.7508 28.4958L28.9055 27.0793L26.7188 26.8328V24.2251H28.8281C29.0146 24.2251 29.1934 24.15 29.3253 24.0164C29.4572 23.8827 29.5312 23.7015 29.5312 23.5126V19.9501H31.6406C31.7923 19.9501 31.9399 19.9004 32.0614 19.8085C32.1829 19.7165 32.2719 19.5873 32.3149 19.4399L33.3169 16.0085C34.5235 13.5339 35.1528 10.8115 35.1562 8.0513C35.1549 6.29432 34.4656 4.60967 33.2396 3.3673C32.0135 2.12492 30.3511 1.42637 28.6172 1.42505ZM24.1312 42.7501H20.8666L19.9097 40.3276L24.8702 40.8862L24.1312 42.7501ZM25.3125 39.4996L19.6875 38.8662V36.0255L25.3125 36.6589V39.4996ZM25.3125 35.2246L19.6875 34.5912V31.7505L25.3125 32.3839V35.2246ZM25.3125 30.9496L19.6875 30.3162V27.4755L25.3125 28.1089V30.9496ZM25.3125 26.6746L19.6875 26.0412V24.2251H25.3125V26.6746ZM28.125 22.8001H16.875V19.9501H28.125V22.8001ZM32.0309 15.4278C32.0126 15.4652 31.9975 15.504 31.9859 15.544L31.1154 18.5251H13.8846L13.0141 15.544C13.0025 15.504 12.9874 15.4652 12.9691 15.4278C11.8416 13.1365 11.2532 10.6117 11.25 8.0513C11.2502 7.19099 11.461 6.34417 11.8635 5.58669C12.266 4.8292 12.8476 4.18472 13.5563 3.71096C14.2649 3.23721 15.0785 2.94898 15.9241 2.8721C16.7697 2.79522 17.6209 2.93208 18.4015 3.27043C19.6971 3.83038 21.0911 4.11903 22.4996 4.11903C23.9082 4.11903 25.3022 3.83038 26.5978 3.27043C27.3784 2.93192 28.2297 2.79494 29.0754 2.87175C29.9211 2.94856 30.7348 3.23676 31.4435 3.71053C32.1523 4.1843 32.734 4.82885 33.1365 5.58641C33.5391 6.34398 33.7498 7.1909 33.75 8.0513C33.7468 10.6117 33.1584 13.1365 32.0309 15.4278Z" fill="url(#paint0_linear)"/>
<path d="M12.6562 8.41103V9.26247H14.0625V8.40747C14.0831 7.82379 14.2568 7.25622 14.5657 6.76317C14.8747 6.27013 15.3077 5.86944 15.8203 5.60236L15.1172 4.36902C14.3891 4.75989 13.7772 5.34057 13.3446 6.05112C12.912 6.76167 12.6744 7.57634 12.6562 8.41103Z" fill="url(#paint1_linear)"/>
<defs>
<linearGradient id="paint0_linear" x1="22.5" y1="1.42505" x2="22.5" y2="44.1751" gradientUnits="userSpaceOnUse">
<stop stop-color="#09B58C"/>
<stop offset="1" stop-color="#009FE3"/>
</linearGradient>
<linearGradient id="paint1_linear" x1="14.2383" y1="4.36902" x2="14.2383" y2="9.26247" gradientUnits="userSpaceOnUse">
<stop stop-color="#09B58C"/>
<stop offset="1" stop-color="#009FE3"/>
</linearGradient>
</defs>
</svg>
