<svg width="42" height="52" viewBox="0 0 42 52" fill="none" xmlns="http://www.w3.org/2000/svg">
<path d="M29.4949 4.32017C28.9893 4.23864 28.5084 4.19912 28.0249 4.19912C26.7355 4.19912 25.7179 4.48616 24.7334 4.76363C23.8182 5.02155 22.9534 5.26532 21.9026 5.26532C21.6418 5.26532 21.373 5.24993 21.1012 5.21915C19.625 5.05857 18.5216 4.45496 17.3528 3.81598C16.0323 3.09422 14.6673 2.3475 12.6794 2.13617C9.74277 1.8275 6.99807 2.80302 5.14251 4.80856C3.47469 6.6115 2.68383 9.04843 2.91567 11.6713C3.13659 14.1511 4.11183 16.12 5.05473 18.0236C5.96655 19.8644 6.82755 21.6033 7.03167 23.7703C7.12113 24.5769 7.19883 25.4542 7.27989 26.3661C7.80069 32.2267 8.44875 39.5204 13.1544 39.52C13.2195 39.52 13.2863 39.5188 13.3539 39.5154C15.2574 39.4268 15.9827 36.6238 16.8219 33.3782C17.7253 29.8859 18.7488 25.928 21.0886 25.7987C21.092 25.7983 21.1332 25.7966 21.1365 25.7962C23.4327 25.8265 24.465 29.2178 25.3756 32.2101C26.1996 34.917 26.9111 37.2549 28.6583 37.2545C28.6587 37.2545 28.6587 37.2545 28.6591 37.2545C28.8137 37.2545 28.972 37.2341 29.1296 37.1937C33.9701 35.9566 34.5744 29.655 35.0154 25.054C35.0772 24.4113 35.1364 23.7935 35.2048 23.2074C35.3787 21.4793 36.2192 20.1481 37.1091 18.7391C38.005 17.321 38.9311 15.8546 39.1003 13.9818C39.4855 9.66286 35.1809 5.3298 29.4949 4.32017ZM37.7412 13.8615C37.601 15.4116 36.8004 16.6795 35.9524 18.0215C35.0184 19.5008 34.0524 21.0301 33.8478 23.0622C33.7798 23.6463 33.7197 24.2732 33.6572 24.9255C33.2317 29.3625 32.7021 34.8841 28.7881 35.8846C28.7415 35.8967 28.7053 35.8971 28.6587 35.9025C27.9254 35.9025 27.2362 33.6386 26.6826 31.8194C25.6885 28.553 24.4512 24.4879 21.1176 24.4442C21.1084 24.4442 21.0702 24.445 21.0609 24.4454L21.013 24.4483C17.6753 24.6326 16.5199 29.1 15.5005 33.0416C14.9151 35.3051 14.1864 38.1227 13.2913 38.1643C9.70203 38.3336 9.11781 31.6268 8.63985 26.2467C8.55795 25.3248 8.47899 24.4375 8.38953 23.633C8.16357 21.2297 7.20597 19.2966 6.27987 17.4271C5.35083 15.5518 4.47345 13.7804 4.27479 11.5519C4.07697 9.31176 4.74225 7.24049 6.14883 5.72084C7.51551 4.24363 9.45297 3.42993 11.6046 3.42993C11.9104 3.42993 12.2237 3.44657 12.5345 3.47902C14.2485 3.66123 15.4363 4.3106 16.6933 4.99825C17.9277 5.67342 19.2045 6.37147 20.9492 6.56116C21.2693 6.59736 21.5897 6.61566 21.9026 6.61566C21.903 6.61566 21.903 6.61566 21.903 6.61566C23.1441 6.61566 24.142 6.33444 25.1072 6.06238C26.0425 5.79864 26.9262 5.54987 28.0254 5.54987C28.4344 5.54987 28.8435 5.58356 29.2652 5.65179C34.1779 6.52497 38.06 10.2848 37.7412 13.8615Z" fill="url(#paint0_linear)"/>
<path d="M11.6043 6.58484C10.338 6.58484 9.26318 7.0233 8.49626 7.85239C7.70078 8.71226 7.32782 9.92781 7.4471 11.2748C7.59368 12.9193 8.27534 14.2958 9.13886 16.0384C9.2573 16.2776 9.49964 16.417 9.75206 16.417C9.85286 16.417 9.95534 16.3945 10.0519 16.3475C10.39 16.1832 10.5299 15.778 10.364 15.4431C9.56306 13.8266 8.93054 12.5494 8.80664 11.1563C8.72138 10.1916 8.96876 9.34292 9.50258 8.76551C10.0045 8.22305 10.7315 7.93642 11.6047 7.93642C11.9814 7.93642 12.2872 7.63399 12.2872 7.26042C12.2868 6.88727 11.981 6.58484 11.6043 6.58484Z" fill="url(#paint1_linear)"/>
<path d="M29.3551 7.55785C29.0376 7.49753 28.7146 7.46716 28.3958 7.46716C28.0628 7.46716 27.7784 7.70553 27.723 8.03043C27.6512 8.45184 27.6146 8.89238 27.6146 9.33958C27.6146 13.1967 30.3975 16.3346 33.8184 16.3346C34.0675 16.3346 34.3082 16.3184 34.5337 16.2872C34.7916 16.251 35.0062 16.0725 35.0868 15.8271C35.2309 15.3899 35.3183 14.9564 35.3544 14.5017C35.5955 11.4013 32.9087 8.2871 29.3551 7.55785Z" fill="url(#paint2_linear)"/>
<defs>
<linearGradient id="paint0_linear" x1="21.0002" y1="2.08008" x2="21.0002" y2="39.52" gradientUnits="userSpaceOnUse">
<stop stop-color="#09B58C"/>
<stop offset="1" stop-color="#009FE3"/>
</linearGradient>
<linearGradient id="paint1_linear" x1="9.85624" y1="6.58484" x2="9.85624" y2="16.417" gradientUnits="userSpaceOnUse">
<stop stop-color="#09B58C"/>
<stop offset="1" stop-color="#009FE3"/>
</linearGradient>
<linearGradient id="paint2_linear" x1="31.492" y1="7.46716" x2="31.492" y2="16.3346" gradientUnits="userSpaceOnUse">
<stop stop-color="#09B58C"/>
<stop offset="1" stop-color="#009FE3"/>
</linearGradient>
</defs>
</svg>
