<svg width="10" height="9" viewBox="0 0 10 9" fill="none" xmlns="http://www.w3.org/2000/svg">
<path d="M9.35355 4.85355C9.54882 4.65829 9.54882 4.34171 9.35355 4.14645L6.17157 0.964466C5.97631 0.769204 5.65973 0.769204 5.46447 0.964466C5.2692 1.15973 5.2692 1.47631 5.46447 1.67157L8.29289 4.5L5.46447 7.32843C5.2692 7.52369 5.2692 7.84027 5.46447 8.03553C5.65973 8.2308 5.97631 8.2308 6.17157 8.03553L9.35355 4.85355ZM0 5H9V4H0V5Z" fill="#009FE3"/>
</svg>
