<svg 
 xmlns="http://www.w3.org/2000/svg"
 xmlns:xlink="http://www.w3.org/1999/xlink"
 width="8px" height="5px">
<path fill-rule="evenodd"  fill="rgb(248, 206, 30)"
 d="M3.998,4.999 L-0.002,-0.000 L7.998,-0.000 L3.998,4.999 Z"/>
</svg>