<svg width="39" height="38" viewBox="0 0 39 38" fill="none" xmlns="http://www.w3.org/2000/svg">
<path d="M31.8857 0.926514C31.4039 0.926514 30.9216 1.10615 30.5601 1.46618L6.84424 25.0784C6.75763 25.1655 6.68912 25.2688 6.64262 25.3824C6.59612 25.4959 6.57255 25.6175 6.57325 25.7401V31.3347C6.57231 31.5822 6.67016 31.82 6.84528 31.9957C7.0204 32.1714 7.25846 32.2706 7.50709 32.2716H13.1339C13.2575 32.2716 13.3798 32.2472 13.4938 32.2C13.6079 32.1528 13.7115 32.0836 13.7986 31.9964L37.5089 8.39147C38.232 7.67163 38.232 6.47177 37.5089 5.75193L33.2114 1.46628C32.8499 1.10637 32.3676 0.926621 31.8857 0.926621V0.926514ZM31.8821 2.78955L36.1796 7.06799L33.7571 9.47972L29.4596 5.20129L31.8821 2.78955ZM2.82325 4.2716C1.80071 4.2716 0.948242 5.12031 0.948242 6.1383V36.0049C0.948242 37.0229 1.80072 37.8734 2.82324 37.8734H32.8232C33.8458 37.8734 34.6982 37.0229 34.6982 36.0049V16.4049C34.701 16.2806 34.6788 16.157 34.633 16.0414C34.5871 15.9257 34.5185 15.8203 34.4312 15.7314C34.3438 15.6425 34.2395 15.5719 34.1244 15.5237C34.0093 15.4754 33.8856 15.4506 33.7607 15.4506C33.6358 15.4506 33.5122 15.4754 33.3971 15.5237C33.282 15.5719 33.1777 15.6425 33.0903 15.7314C33.003 15.8203 32.9344 15.9257 32.8885 16.0414C32.8427 16.157 32.8205 16.2806 32.8232 16.4049V36.0049H2.82325V6.1383H22.5126C22.6374 6.14102 22.7616 6.11885 22.8777 6.07317C22.9938 6.02749 23.0996 5.95923 23.1889 5.87229C23.2782 5.78535 23.3491 5.68147 23.3975 5.56688C23.4459 5.45228 23.4709 5.32927 23.4709 5.20495C23.4709 5.08063 23.4459 4.95761 23.3975 4.84302C23.3491 4.72843 23.2782 4.62455 23.1889 4.53761C23.0996 4.45067 22.9938 4.38241 22.8777 4.33673C22.7616 4.29105 22.6374 4.26888 22.5126 4.2716H2.82325ZM28.1339 6.52111L29.6207 8.00316L11.2589 26.2833L9.77394 24.8049L28.1339 6.52111ZM30.9464 9.32298L32.4296 10.8031L14.0714 29.0852L12.5846 27.6031L30.9464 9.32298ZM8.45008 26.1266L12.7476 30.4049H10.3232L8.45008 28.5401L8.45008 26.1266Z" fill="url(#paint0_linear)"/>
<defs>
<linearGradient id="paint0_linear" x1="19.4997" y1="0.926514" x2="19.4997" y2="37.8734" gradientUnits="userSpaceOnUse">
<stop stop-color="#09B58C"/>
<stop offset="1" stop-color="#009FE3"/>
</linearGradient>
</defs>
</svg>
