<svg width="29" height="29" viewBox="0 0 29 29" fill="none" xmlns="http://www.w3.org/2000/svg">
<path d="M21.9501 7.42462L21.243 6.71751L14.5255 13.435L7.80794 6.71751L7.10083 7.42462L13.8183 14.1421L7.10083 20.8596L7.80794 21.5668L14.5255 14.8492L21.243 21.5668L21.9501 20.8596L15.2326 14.1421L21.9501 7.42462Z" fill="white"/>
</svg>
