<svg width="25" height="32" viewBox="0 0 25 32" fill="none" xmlns="http://www.w3.org/2000/svg">
<path d="M7 11.57H7.66C8.01142 11.5797 8.36297 11.5563 8.71 11.5C8.89765 11.4557 9.07448 11.374 9.23 11.26C9.41292 11.1362 9.56098 10.9675 9.66 10.77C9.78499 10.5326 9.85021 10.2683 9.85 10C9.8691 9.64351 9.76688 9.29103 9.56 9.00004C9.37925 8.75867 9.12184 8.58589 8.83 8.51004C8.43398 8.44083 8.03171 8.41401 7.63 8.43004H6V13.43H7V11.57ZM7 9.30004H7.49C7.73306 9.28387 7.97694 9.28387 8.22 9.30004C8.37606 9.32774 8.51755 9.40909 8.62 9.53004C8.71244 9.65053 8.76255 9.79816 8.76255 9.95004C8.76255 10.1019 8.71244 10.2495 8.62 10.37C8.54291 10.4792 8.43495 10.5627 8.31 10.61C8.04628 10.6813 7.77257 10.7083 7.5 10.69H7V9.30004Z" fill="url(#paint0_linear)"/>
<path d="M13.47 13.3601C13.7363 13.2807 13.982 13.1442 14.19 12.9601C14.4357 12.7103 14.6174 12.405 14.72 12.0701C14.8313 11.7245 14.8854 11.3631 14.88 11.0001C14.8886 10.5968 14.8312 10.1948 14.71 9.81009C14.611 9.50835 14.4471 9.2319 14.23 9.00009C14.0242 8.78433 13.7657 8.62581 13.48 8.54009C13.1526 8.46251 12.8163 8.42889 12.48 8.44009H10.67V13.4401H12.58C12.879 13.457 13.1789 13.43 13.47 13.3601ZM11.69 12.6201V9.30009H12.14C12.4162 9.27524 12.6939 9.27524 12.97 9.30009C13.1443 9.33368 13.3066 9.41307 13.44 9.53009C13.5773 9.66571 13.6772 9.8345 13.73 10.0201C13.8086 10.3099 13.8424 10.6101 13.83 10.9101C13.8408 11.22 13.8071 11.5298 13.73 11.8301C13.6867 12.0122 13.5932 12.1785 13.46 12.3101C13.3467 12.413 13.2091 12.4852 13.06 12.5201C12.854 12.5421 12.6461 12.5421 12.44 12.5201L11.69 12.6201Z" fill="url(#paint1_linear)"/>
<path d="M16.75 11.33H18.84V10.49H16.75V9.29995H19.18V8.44995H15.74V13.46H16.75V11.33Z" fill="url(#paint2_linear)"/>
<path d="M2 32H23C23.5304 32 24.0391 31.7893 24.4142 31.4142C24.7893 31.0391 25 30.5304 25 30V2C25 1.46957 24.7893 0.960859 24.4142 0.585786C24.0391 0.210714 23.5304 0 23 0L2 0C1.46957 0 0.960859 0.210714 0.585786 0.585786C0.210714 0.960859 0 1.46957 0 2L0 30C0 30.5304 0.210714 31.0391 0.585786 31.4142C0.960859 31.7893 1.46957 32 2 32ZM1 2C1 1.73478 1.10536 1.48043 1.29289 1.29289C1.48043 1.10536 1.73478 1 2 1H23C23.2652 1 23.5196 1.10536 23.7071 1.29289C23.8946 1.48043 24 1.73478 24 2V30C24 30.2652 23.8946 30.5196 23.7071 30.7071C23.5196 30.8946 23.2652 31 23 31H2C1.73478 31 1.48043 30.8946 1.29289 30.7071C1.10536 30.5196 1 30.2652 1 30V2Z" fill="url(#paint3_linear)"/>
<path d="M20 24.54H5.01001V25.54H20V24.54Z" fill="url(#paint4_linear)"/>
<path d="M20 21H5.01001V22H20V21Z" fill="url(#paint5_linear)"/>
<defs>
<linearGradient id="paint0_linear" x1="7.92613" y1="8.42554" x2="7.92613" y2="13.43" gradientUnits="userSpaceOnUse">
<stop stop-color="#09B58C"/>
<stop offset="1" stop-color="#009FE3"/>
</linearGradient>
<linearGradient id="paint1_linear" x1="12.7755" y1="8.43799" x2="12.7755" y2="13.445" gradientUnits="userSpaceOnUse">
<stop stop-color="#09B58C"/>
<stop offset="1" stop-color="#009FE3"/>
</linearGradient>
<linearGradient id="paint2_linear" x1="17.46" y1="8.44995" x2="17.46" y2="13.46" gradientUnits="userSpaceOnUse">
<stop stop-color="#09B58C"/>
<stop offset="1" stop-color="#009FE3"/>
</linearGradient>
<linearGradient id="paint3_linear" x1="12.5" y1="0" x2="12.5" y2="32" gradientUnits="userSpaceOnUse">
<stop stop-color="#09B58C"/>
<stop offset="1" stop-color="#009FE3"/>
</linearGradient>
<linearGradient id="paint4_linear" x1="12.505" y1="24.54" x2="12.505" y2="25.54" gradientUnits="userSpaceOnUse">
<stop stop-color="#09B58C"/>
<stop offset="1" stop-color="#009FE3"/>
</linearGradient>
<linearGradient id="paint5_linear" x1="12.505" y1="21" x2="12.505" y2="22" gradientUnits="userSpaceOnUse">
<stop stop-color="#09B58C"/>
<stop offset="1" stop-color="#009FE3"/>
</linearGradient>
</defs>
</svg>
