<svg width="41" height="52" viewBox="0 0 41 52" fill="none" xmlns="http://www.w3.org/2000/svg">
<path d="M37.3694 11.9326C37.2694 11.9263 37.173 11.9471 37.0857 11.9858L37.0836 11.9812C36.2423 12.3457 35.3424 12.5304 34.4092 12.5304C30.6356 12.5304 27.5655 9.41535 27.5655 5.58607C27.5655 4.68959 27.7323 3.81641 28.0616 2.99106L28.0591 2.98981C28.0964 2.89621 28.1145 2.79305 28.1026 2.68572C28.064 2.34335 27.759 2.09791 27.4216 2.1366C26.0501 2.29593 25.0161 2.79097 24.0161 3.26978C22.9321 3.78895 21.9083 4.27941 20.5126 4.27941C19.1191 4.27941 18.0949 3.78937 17.0104 3.2702C15.9477 2.76143 14.8485 2.23561 13.3524 2.11205C13.3323 2.10873 13.3118 2.10623 13.2921 2.10498C13.2593 2.1029 13.2233 2.10332 13.1901 2.10124C13.0138 2.08085 12.8559 2.07503 12.7161 2.08377C12.7067 2.08377 12.6981 2.08293 12.6886 2.08293C7.37912 2.08293 3.06018 6.46716 3.06018 11.856C3.06018 14.253 3.87895 16.1558 4.67066 17.9962C5.42014 19.7392 6.12862 21.3853 6.21759 23.4616C6.23604 23.8959 6.25203 24.3502 6.26843 24.8198C6.47958 30.7745 6.76863 38.9293 12.1843 39.5088C14.1761 39.7205 14.9895 36.8551 15.9219 33.533C16.9112 30.0074 18.033 26.0108 20.463 25.9318L20.5418 25.9314C22.9919 26.0108 24.1129 30.0074 25.1026 33.533C26.0017 36.7374 26.7824 39.52 28.6311 39.52C28.6991 39.52 28.7688 39.5163 28.8398 39.5088C34.2559 38.9293 34.5449 30.7745 34.7561 24.8198C34.7725 24.3502 34.7884 23.8959 34.8069 23.462C34.895 21.3845 35.6035 19.7376 36.3538 17.9941C37.0611 16.3513 37.7917 14.6524 37.9385 12.6002C37.9627 12.2566 37.708 11.9575 37.3694 11.9326ZM35.2263 17.4945C34.4637 19.2662 33.6753 21.0979 33.5773 23.4088C33.5593 23.8451 33.5429 24.3023 33.5265 24.7749C33.3313 30.2723 33.0648 37.8015 28.7102 38.2674C28.6922 38.2695 28.6741 38.2704 28.6565 38.2704C27.711 38.2704 26.9542 35.5747 26.2854 33.1914C25.1809 29.2548 23.9288 24.7928 20.5614 24.6838L20.4434 24.6842C17.0957 24.7928 15.8432 29.2548 14.739 33.1914C14.058 35.6196 13.293 38.3673 12.3139 38.2679C7.95968 37.8024 7.69318 30.2732 7.49802 24.7753C7.48162 24.3032 7.46522 23.846 7.44718 23.4083C7.34755 21.0991 6.55994 19.2679 5.79775 17.497C5.02244 15.6949 4.29018 13.9926 4.29018 11.856C4.29018 7.15522 8.05767 3.33093 12.6882 3.33093C12.8543 3.33093 13.0174 3.33759 13.1745 3.34799C13.1909 3.35049 13.2073 3.35257 13.2233 3.35381C13.2618 3.35673 13.2971 3.36297 13.3348 3.36671C13.4299 3.38335 13.532 3.40498 13.6398 3.43077L11.2397 7.29833C11.1204 7.49052 11.1134 7.73346 11.2216 7.93273C11.3303 8.13157 11.5365 8.25513 11.7604 8.25513H15.2737L12.2233 11.8585C12.0667 12.0436 12.0306 12.3041 12.1306 12.5258C12.2311 12.7475 12.4492 12.8894 12.6894 12.8894H15.6455L13.2064 18.1801C13.0621 18.4925 13.1954 18.864 13.5029 19.01C13.5873 19.0499 13.6759 19.069 13.7632 19.069C13.9949 19.069 14.2163 18.9359 14.3208 18.7092L17.1695 12.5299C17.2589 12.3365 17.2445 12.1106 17.1314 11.9305C17.0186 11.7504 16.8227 11.6414 16.6123 11.6414H14.0285L17.0789 8.03797C17.2355 7.85285 17.2716 7.59244 17.1716 7.37071C17.0711 7.14898 16.853 7.00713 16.6127 7.00713H12.8743L14.8629 3.80351C17.322 4.67129 21.1158 6.52873 23.5926 7.85785C23.6844 7.90693 23.7828 7.93023 23.8796 7.93023C24.1002 7.93023 24.3134 7.80917 24.4236 7.59785C24.5823 7.29292 24.4675 6.91561 24.1674 6.7542C23.8792 6.59945 22.9001 6.07861 21.6164 5.43797C22.7426 5.2566 23.6541 4.82313 24.5401 4.39881C25.2117 4.07724 25.8582 3.77065 26.5913 3.56889C26.4265 4.22533 26.3347 4.89884 26.3347 5.58607C26.3347 10.1034 29.9566 13.7784 34.4088 13.7784C35.1562 13.7784 35.884 13.6694 36.5871 13.4697C36.3378 14.8974 35.7975 16.167 35.2263 17.4945Z" fill="url(#paint0_linear)"/>
<defs>
<linearGradient id="paint0_linear" x1="20.5001" y1="2.07983" x2="20.5001" y2="39.52" gradientUnits="userSpaceOnUse">
<stop stop-color="#09B58C"/>
<stop offset="1" stop-color="#009FE3"/>
</linearGradient>
</defs>
</svg>
