<svg width="50" height="62" viewBox="0 0 50 62" fill="none" xmlns="http://www.w3.org/2000/svg">
<path d="M31.7969 8.52503C30.8132 8.52387 29.8396 8.7222 28.9359 9.10783C27.6907 9.63406 26.3512 9.90532 24.9977 9.90532C23.6441 9.90532 22.3046 9.63406 21.0594 9.10783C19.9545 8.63924 18.7498 8.44979 17.553 8.55645C16.3563 8.6631 15.2048 9.06253 14.2019 9.71896C13.1989 10.3754 12.3757 11.2683 11.806 12.3178C11.2363 13.3673 10.9379 14.5406 10.9375 15.7325C10.9412 18.759 11.6514 21.7435 13.0125 24.4521L14.082 26.5756L15.4102 38.4253C15.4907 39.1448 15.8323 39.8107 16.3714 40.2987C16.9105 40.7867 17.6101 41.0634 18.3398 41.0773C19.0694 41.0911 19.7792 40.8412 20.3367 40.374C20.8942 39.9068 21.2613 39.2544 21.3695 38.5385L23.0812 27.2165C23.1496 26.7602 23.381 26.3434 23.7332 26.0422C24.0854 25.7409 24.535 25.5752 25 25.5752C25.465 25.5752 25.9146 25.7409 26.2668 26.0422C26.619 26.3434 26.8504 26.7602 26.9187 27.2165L28.6305 38.5385C28.7387 39.2544 29.1058 39.9068 29.6633 40.374C30.2208 40.8412 30.9306 41.0911 31.6602 41.0773C32.3899 41.0634 33.0895 40.7867 33.6286 40.2987C34.1677 39.8107 34.5093 39.1448 34.5898 38.4253L35.918 26.5756L36.9875 24.4521C38.3486 21.7435 39.0588 18.759 39.0625 15.7325C39.061 13.8214 38.2951 11.989 36.9328 10.6376C35.5706 9.28629 33.7234 8.52647 31.7969 8.52503ZM35.5875 23.7569L34.4547 26.0044C34.4138 26.0864 34.3874 26.1747 34.3766 26.2656L33.0367 38.2517C32.9985 38.5974 32.8347 38.9174 32.576 39.152C32.3172 39.3865 31.9812 39.5196 31.6307 39.5262C31.2802 39.5329 30.9393 39.4127 30.6717 39.1881C30.404 38.9635 30.228 38.6499 30.1766 38.3059L28.4648 26.984C28.3399 26.1611 27.9215 25.4099 27.2857 24.8671C26.6499 24.3242 25.8389 24.0257 25 24.0257C24.1611 24.0257 23.3501 24.3242 22.7143 24.8671C22.0784 25.4099 21.6601 26.1611 21.5352 26.984L19.8234 38.3059C19.772 38.6499 19.596 38.9635 19.3283 39.1881C19.0607 39.4127 18.7198 39.5329 18.3693 39.5262C18.0188 39.5196 17.6828 39.3865 17.424 39.152C17.1653 38.9174 17.0015 38.5974 16.9633 38.2517L15.6203 26.2648C15.6095 26.1739 15.5831 26.0856 15.5422 26.0036L14.4094 23.7561C13.1572 21.2636 12.5037 18.5174 12.5 15.7325C12.5002 14.7967 12.7344 13.8754 13.1816 13.0514C13.6289 12.2274 14.2752 11.5263 15.0628 11.011C15.8503 10.4957 16.7544 10.1822 17.694 10.0986C18.6337 10.0151 19.5795 10.1641 20.4469 10.5323C21.8863 11.1413 23.4351 11.4553 25 11.4553C26.5649 11.4553 28.1137 11.1413 29.5531 10.5323C30.4205 10.1641 31.3663 10.0151 32.306 10.0986C33.2456 10.1822 34.1497 10.4957 34.9372 11.011C35.7248 11.5263 36.3711 12.2274 36.8184 13.0514C37.2656 13.8754 37.4998 14.7967 37.5 15.7325C37.4962 18.5177 36.8424 21.2642 35.5898 23.7569H35.5875Z" fill="url(#paint0_linear)"/>
<path d="M14.0625 16.7439V17.825H15.625V16.7439C15.6242 16.0118 15.806 15.2909 16.1543 14.6455C16.5026 14.0001 17.0065 13.4502 17.6211 13.0448L16.7539 11.7552C15.9253 12.3021 15.2459 13.0437 14.7763 13.9141C14.3067 14.7845 14.0615 15.7567 14.0625 16.7439Z" fill="url(#paint1_linear)"/>
<path d="M25.7812 1.55005H24.2188V4.65005H25.7812V1.55005Z" fill="url(#paint2_linear)"/>
<path d="M25.7812 44.9501H24.2188V48.0501H25.7812V44.9501Z" fill="url(#paint3_linear)"/>
<path d="M13.9579 4.27742L12.6047 5.05237L14.1671 7.7371L15.5203 6.96215L13.9579 4.27742Z" fill="url(#paint4_linear)"/>
<path d="M35.8327 41.8635L34.4796 42.6384L36.042 45.3232L37.3951 44.5482L35.8327 41.8635Z" fill="url(#paint5_linear)"/>
<path d="M5.0929 12.5045L4.31177 13.8469L7.01823 15.3967L7.79937 14.0543L5.0929 12.5045Z" fill="url(#paint6_linear)"/>
<path d="M42.981 34.2046L42.1999 35.547L44.9064 37.0968L45.6875 35.7544L42.981 34.2046Z" fill="url(#paint7_linear)"/>
<path d="M4.6875 24.025H1.5625V25.575H4.6875V24.025Z" fill="url(#paint8_linear)"/>
<path d="M48.4375 24.025H45.3125V25.575H48.4375V24.025Z" fill="url(#paint9_linear)"/>
<path d="M7.01915 34.2038L4.31268 35.7535L5.09382 37.0959L7.80028 35.5462L7.01915 34.2038Z" fill="url(#paint10_linear)"/>
<path d="M44.9073 12.5031L42.2009 14.0529L42.982 15.3953L45.6885 13.8455L44.9073 12.5031Z" fill="url(#paint11_linear)"/>
<path d="M14.1671 41.8632L12.6049 44.548L13.9581 45.3229L15.5204 42.638L14.1671 41.8632Z" fill="url(#paint12_linear)"/>
<path d="M36.0415 4.27743L34.4791 6.96216L35.8323 7.73711L37.3947 5.05238L36.0415 4.27743Z" fill="url(#paint13_linear)"/>
<path d="M2.21562 6.18919C2.83661 6.2921 3.4097 6.58485 3.85483 7.02656C4.29995 7.46826 4.59488 8.03685 4.69843 8.65291C4.72921 8.83349 4.82346 8.99741 4.96447 9.11562C5.10548 9.23383 5.28413 9.29869 5.46874 9.29869C5.65336 9.29869 5.83201 9.23383 5.97301 9.11562C6.11402 8.99741 6.20827 8.83349 6.23905 8.65291C6.3426 8.03685 6.63753 7.46826 7.08266 7.02656C7.52778 6.58485 8.10087 6.2921 8.72187 6.18919C8.9039 6.15865 9.06914 6.06515 9.18831 5.92528C9.30747 5.7854 9.37285 5.60818 9.37285 5.42504C9.37285 5.2419 9.30747 5.06468 9.18831 4.9248C9.06914 4.78492 8.9039 4.69143 8.72187 4.66089C8.10087 4.55798 7.52778 4.26523 7.08266 3.82352C6.63753 3.38182 6.3426 2.81322 6.23905 2.19716C6.20827 2.01659 6.11402 1.85267 5.97301 1.73446C5.83201 1.61625 5.65336 1.55139 5.46874 1.55139C5.28413 1.55139 5.10548 1.61625 4.96447 1.73446C4.82346 1.85267 4.72921 2.01659 4.69843 2.19716C4.59488 2.81322 4.29995 3.38182 3.85483 3.82352C3.4097 4.26523 2.83661 4.55798 2.21562 4.66089C2.03359 4.69143 1.86834 4.78492 1.74918 4.9248C1.63001 5.06468 1.56464 5.2419 1.56464 5.42504C1.56464 5.60818 1.63001 5.7854 1.74918 5.92528C1.86834 6.06515 2.03359 6.15865 2.21562 6.18919ZM5.46874 4.31834C5.77337 4.7484 6.15083 5.12284 6.58437 5.42504C6.15083 5.72723 5.77337 6.10168 5.46874 6.53174C5.16411 6.10168 4.78665 5.72723 4.35312 5.42504C4.78665 5.12284 5.16411 4.7484 5.46874 4.31834Z" fill="url(#paint14_linear)"/>
<defs>
<linearGradient id="paint0_linear" x1="25" y1="8.52502" x2="25" y2="41.0778" gradientUnits="userSpaceOnUse">
<stop stop-color="#09B58C"/>
<stop offset="1" stop-color="#009FE3"/>
</linearGradient>
<linearGradient id="paint1_linear" x1="15.8418" y1="11.7552" x2="15.8418" y2="17.825" gradientUnits="userSpaceOnUse">
<stop stop-color="#09B58C"/>
<stop offset="1" stop-color="#009FE3"/>
</linearGradient>
<linearGradient id="paint2_linear" x1="25" y1="1.55005" x2="25" y2="4.65005" gradientUnits="userSpaceOnUse">
<stop stop-color="#09B58C"/>
<stop offset="1" stop-color="#009FE3"/>
</linearGradient>
<linearGradient id="paint3_linear" x1="25" y1="44.9501" x2="25" y2="48.0501" gradientUnits="userSpaceOnUse">
<stop stop-color="#09B58C"/>
<stop offset="1" stop-color="#009FE3"/>
</linearGradient>
<linearGradient id="paint4_linear" x1="13.2813" y1="4.66489" x2="14.825" y2="7.36036" gradientUnits="userSpaceOnUse">
<stop stop-color="#09B58C"/>
<stop offset="1" stop-color="#009FE3"/>
</linearGradient>
<linearGradient id="paint5_linear" x1="35.1561" y1="42.251" x2="36.6998" y2="44.9464" gradientUnits="userSpaceOnUse">
<stop stop-color="#09B58C"/>
<stop offset="1" stop-color="#009FE3"/>
</linearGradient>
<linearGradient id="paint6_linear" x1="4.70233" y1="13.1757" x2="7.39789" y2="14.7442" gradientUnits="userSpaceOnUse">
<stop stop-color="#09B58C"/>
<stop offset="1" stop-color="#009FE3"/>
</linearGradient>
<linearGradient id="paint7_linear" x1="42.5905" y1="34.8758" x2="45.286" y2="36.4443" gradientUnits="userSpaceOnUse">
<stop stop-color="#09B58C"/>
<stop offset="1" stop-color="#009FE3"/>
</linearGradient>
<linearGradient id="paint8_linear" x1="3.125" y1="24.025" x2="3.125" y2="25.575" gradientUnits="userSpaceOnUse">
<stop stop-color="#09B58C"/>
<stop offset="1" stop-color="#009FE3"/>
</linearGradient>
<linearGradient id="paint9_linear" x1="46.875" y1="24.025" x2="46.875" y2="25.575" gradientUnits="userSpaceOnUse">
<stop stop-color="#09B58C"/>
<stop offset="1" stop-color="#009FE3"/>
</linearGradient>
<linearGradient id="paint10_linear" x1="5.66592" y1="34.9787" x2="6.43768" y2="36.3264" gradientUnits="userSpaceOnUse">
<stop stop-color="#09B58C"/>
<stop offset="1" stop-color="#009FE3"/>
</linearGradient>
<linearGradient id="paint11_linear" x1="43.5541" y1="13.278" x2="44.3259" y2="14.6257" gradientUnits="userSpaceOnUse">
<stop stop-color="#09B58C"/>
<stop offset="1" stop-color="#009FE3"/>
</linearGradient>
<linearGradient id="paint12_linear" x1="13.386" y1="43.2056" x2="14.7338" y2="43.9898" gradientUnits="userSpaceOnUse">
<stop stop-color="#09B58C"/>
<stop offset="1" stop-color="#009FE3"/>
</linearGradient>
<linearGradient id="paint13_linear" x1="35.2603" y1="5.61979" x2="36.6081" y2="6.40412" gradientUnits="userSpaceOnUse">
<stop stop-color="#09B58C"/>
<stop offset="1" stop-color="#009FE3"/>
</linearGradient>
<linearGradient id="paint14_linear" x1="5.46874" y1="1.55139" x2="5.46874" y2="9.29869" gradientUnits="userSpaceOnUse">
<stop stop-color="#09B58C"/>
<stop offset="1" stop-color="#009FE3"/>
</linearGradient>
</defs>
</svg>
