<svg width="21" height="17" viewBox="0 0 21 17" fill="none" xmlns="http://www.w3.org/2000/svg">
<path d="M0 0H21V1H0V0Z" fill="white"/>
<path d="M0 8H21V9H0V8Z" fill="white"/>
<path d="M0 16H21V17H0V16Z" fill="white"/>
</svg>
